{
    "app-id": "org.gnome.World.Iotas",
    "runtime": "org.gnome.Platform",
    "runtime-version": "master",
    "sdk": "org.gnome.Sdk",
    "tags" : [
        "devel",
        "development",
        "nightly"
    ],
    "command": "iotas",
    "finish-args": [
        "--device=dri",
        "--share=ipc",
        "--socket=fallback-x11",
        "--share=network",
        "--socket=wayland",
        "--talk-name=org.freedesktop.secrets"
    ],
    "cleanup" : [
        "*.a",
        "*.la",
        "/include",
        "/lib/cmake",
        "/lib/pkgconfig",
        "/man",
        "/share/aclocal",
        "/share/gtk-doc",
        "/share/man",
        "/share/pkgconfig"
    ],
    "modules": [
        "python3-requirements.json",
        "katex.json",
        {
            "name" : "pandoc",
            "buildsystem": "simple",
            "build-commands": [
                "cp bin/pandoc /app/bin/pandoc"
            ],
            "sources": [
                {
                    "type": "archive",
                    "url": "https://github.com/jgm/pandoc/releases/download/3.6.3/pandoc-3.6.3-linux-amd64.tar.gz",
                    "sha256": "d04c95c138202f87d6b00ac19aa3dd874c681f60a9feb3b55c74f764d6d1a17d",
                    "only-arches": ["x86_64"]
                },
                {
                    "type": "archive",
                    "url": "https://github.com/jgm/pandoc/releases/download/3.6.3/pandoc-3.6.3-linux-arm64.tar.gz",
                    "sha256": "4e774cb1bdb6e56bc55b8eb79200bd9aa6a39905a04ecda7267f5149116f0881",
                    "only-arches": ["aarch64"]
                }
            ]
        },
        {
            "name" : "iotas",
            "buildsystem" : "meson",
            "builddir" : true,
            "config-opts": [
                "-Dprofile=development"
            ],
            "sources" : [
                {
                    "type" : "dir",
                    "path" : "../../"
                }
            ]
        }
    ]
}
